^F:\DEV\OPENGLTEST\SOIL\SIMPLE OPENGL IMAGE LIBRARY\PROJECTS\VC9\DEBUG\IMAGE_DXT.OBJ|F:\DEV\OPENGLTEST\SOIL\SIMPLE OPENGL IMAGE LIBRARY\PROJECTS\VC9\DEBUG\IMAGE_HELPER.OBJ|F:\DEV\OPENGLTEST\SOIL\SIMPLE OPENGL IMAGE LIBRARY\PROJECTS\VC9\DEBUG\SOIL.OBJ|F:\DEV\OPENGLTEST\SOIL\SIMPLE OPENGL IMAGE LIBRARY\PROJECTS\VC9\DEBUG\STB_IMAGE_AUG.OBJ
C:\WINDOWS\GLOBALIZATION\SORTING\SORTDEFAULT.NLS
F:\DEV\OPENGLTEST\SOIL\SIMPLE OPENGL IMAGE LIBRARY\PROJECTS\VC9\DEBUG\IMAGE_DXT.OBJ
C:\WINDOWS\SYSTEM32\TZRES.DLL
F:\DEV\OPENGLTEST\SOIL\SIMPLE OPENGL IMAGE LIBRARY\PROJECTS\VC9\DEBUG\IMAGE_HELPER.OBJ
F:\DEV\OPENGLTEST\SOIL\SIMPLE OPENGL IMAGE LIBRARY\PROJECTS\VC9\DEBUG\SOIL.OBJ
F:\DEV\OPENGLTEST\SOIL\SIMPLE OPENGL IMAGE LIBRARY\PROJECTS\VC9\DEBUG\STB_IMAGE_AUG.OBJ
